Random Forest Vignette
…
best_rf <- select_best(tune_rf)

rf_final <- finalize_workflow(rf_class_wf, best_rf)

rf_final_fit <- fit(rf_final, data = train_set)

Prediction

To make predictions using the trained random forest model (rf_final_fit), use the predict() function and provide it with new input data (new_data). It is required that the structure of the input data aligns with the predictor variables used during the model training process. Here, we will generate predictions from all the input points in our test set.

new_data <- test_set[c("pclass", "sex", "age", "sib_sp", "parch", "fare")]
predict(rf_final_fit, new_data)

# A tibble: 268 × 1
   .pred_class
   <fct>      
 1 Yes        
 2 Yes        
 3 No         
 4 No         
 5 No         
 6 No         
 7 No         
 8 No         
 9 No         
10 No         
# ℹ 258 more rows
…
#save best RF
best_rf_auto <-select_best(tune_auto)

#finalize/fit best RF
final_auto_model <- finalize_workflow(rf_auto_wf, best_rf_auto)
final_auto_model <- fit(final_auto_model, auto_train)

Prediction

To make predictions using the trained random forest model (final_auto_model), use the predict() function and provide it with new input data (new_data). It is required that the structure of the input data aligns with the predictor variables used during the model training process. Here, we will generate predictions from all the input points in our test set.

new_data <- auto_test[c("cylinders","displacement","horsepower","weight","acceleration","year","origin", "name" )]
predict(final_auto_model, new_data)

# A tibble: 80 × 1
   .pred
   <dbl>
 1  14.6
 2  16.2
 3  14.3
 4  15.6
 5  28.1
 6  24.6
 7  24.6
 8  25.2
 9  20.5
10  13.1
# ℹ 70 more rows
…
