vignette_scratch
…
Warning: No value of `metric` was given; metric 'roc_auc' will be used.

rf_final <- finalize_workflow(rf_class_wf, best_rf)

rf_final_fit <- fit(rf_final, data = train_set)

Prediction

To make predictions using the trained random forest model (rf_final_fit), use the predict() function and provide it with new input data (new_data). It is required that the structure of the input data aligns with the predictor variables used during the model training process.

new_data <- test_set[c("pclass", "sex", "age", "sib_sp", "parch", "fare")]
predict(rf_final_fit, new_data)

# A tibble: 268 × 1
   .pred_class
   <fct>      
 1 Yes        
 2 Yes        
 3 No         
 4 No         
 5 No         
 6 No         
 7 No         
 8 No         
 9 No         
10 No         
# ℹ 258 more rows
…
